\relax 
\providecommand\hyper@newdestlabel[2]{}
\@writefile{toc}{\beamer@sectionintoc {4}{Controllers}{40}{0}{4}}
\@writefile{nav}{\headcommand {\sectionentry {4}{Controllers}{40}{Controllers}{0}}}
\@writefile{nav}{\headcommand {\beamer@sectionpages {25}{39}}}
\@writefile{nav}{\headcommand {\beamer@subsectionpages {25}{39}}}
\@writefile{nav}{\headcommand {\slideentry {4}{0}{11}{40/40}{}{0}}}
\@writefile{nav}{\headcommand {\beamer@framepages {40}{40}}}
\@writefile{nav}{\headcommand {\slideentry {4}{0}{12}{41/41}{}{0}}}
\@writefile{nav}{\headcommand {\beamer@framepages {41}{41}}}
\@writefile{nav}{\headcommand {\slideentry {4}{0}{13}{42/42}{}{0}}}
\@writefile{nav}{\headcommand {\beamer@framepages {42}{42}}}
\@writefile{nav}{\headcommand {\slideentry {4}{0}{14}{43/49}{}{0}}}
\@writefile{nav}{\headcommand {\beamer@framepages {43}{49}}}
\@setckpt{controllers}{
\setcounter{page}{50}
\setcounter{equation}{0}
\setcounter{enumi}{0}
\setcounter{enumii}{0}
\setcounter{enumiii}{0}
\setcounter{enumiv}{0}
\setcounter{footnote}{0}
\setcounter{mpfootnote}{0}
\setcounter{beamerpauses}{1}
\setcounter{bookmark@seq@number}{4}
\setcounter{lecture}{0}
\setcounter{part}{0}
\setcounter{section}{4}
\setcounter{subsection}{0}
\setcounter{subsubsection}{0}
\setcounter{subsectionslide}{14}
\setcounter{framenumber}{14}
\setcounter{figure}{0}
\setcounter{table}{0}
\setcounter{parentequation}{0}
\setcounter{theorem}{0}
\setcounter{FancyVerbLine}{1}
\setcounter{section@level}{0}
\setcounter{treelevel}{0}
}
