\relax 
\providecommand\hyper@newdestlabel[2]{}
\@writefile{toc}{\beamer@sectionintoc {10}{Je eigen Library of Helper toevoegen}{99}{1}{10}}
\@writefile{nav}{\headcommand {\sectionentry {10}{Libs+}{99}{Je eigen Library of Helper toevoegen}{1}}}
\@writefile{nav}{\headcommand {\beamer@sectionpages {95}{98}}}
\@writefile{nav}{\headcommand {\beamer@subsectionpages {95}{98}}}
\@writefile{nav}{\headcommand {\slideentry {10}{0}{42}{99/99}{}{1}}}
\@writefile{nav}{\headcommand {\beamer@framepages {99}{99}}}
\@writefile{nav}{\headcommand {\slideentry {10}{0}{43}{100/103}{}{1}}}
\@writefile{nav}{\headcommand {\beamer@framepages {100}{103}}}
\@writefile{toc}{\beamer@sectionintoc {11}{Een tekortkoming van Active Record}{104}{1}{11}}
\@writefile{nav}{\headcommand {\sectionentry {11}{Database+}{104}{Een tekortkoming van Active Record}{1}}}
\@writefile{nav}{\headcommand {\beamer@sectionpages {99}{103}}}
\@writefile{nav}{\headcommand {\beamer@subsectionpages {99}{103}}}
\@writefile{nav}{\headcommand {\slideentry {11}{0}{44}{104/104}{}{1}}}
\@writefile{nav}{\headcommand {\beamer@framepages {104}{104}}}
\@writefile{nav}{\headcommand {\slideentry {11}{0}{45}{105/108}{}{1}}}
\@writefile{nav}{\headcommand {\beamer@framepages {105}{108}}}
\@writefile{toc}{\beamer@sectionintoc {12}{Speciale functies in Controllers}{109}{1}{12}}
\@writefile{nav}{\headcommand {\sectionentry {12}{Controllers+}{109}{Speciale functies in Controllers}{1}}}
\@writefile{nav}{\headcommand {\beamer@sectionpages {104}{108}}}
\@writefile{nav}{\headcommand {\beamer@subsectionpages {104}{108}}}
\@writefile{nav}{\headcommand {\slideentry {12}{0}{46}{109/109}{}{1}}}
\@writefile{nav}{\headcommand {\beamer@framepages {109}{109}}}
\@writefile{nav}{\headcommand {\slideentry {12}{0}{47}{110/110}{}{1}}}
\@writefile{nav}{\headcommand {\beamer@framepages {110}{110}}}
\@writefile{nav}{\headcommand {\slideentry {12}{0}{48}{111/112}{}{1}}}
\@writefile{nav}{\headcommand {\beamer@framepages {111}{112}}}
\@writefile{nav}{\headcommand {\slideentry {12}{0}{49}{113/113}{}{1}}}
\@writefile{nav}{\headcommand {\beamer@framepages {113}{113}}}
\@setckpt{extras}{
\setcounter{page}{114}
\setcounter{equation}{0}
\setcounter{enumi}{0}
\setcounter{enumii}{0}
\setcounter{enumiii}{0}
\setcounter{enumiv}{0}
\setcounter{footnote}{0}
\setcounter{mpfootnote}{0}
\setcounter{beamerpauses}{1}
\setcounter{bookmark@seq@number}{13}
\setcounter{lecture}{0}
\setcounter{part}{1}
\setcounter{section}{12}
\setcounter{subsection}{0}
\setcounter{subsubsection}{0}
\setcounter{subsectionslide}{49}
\setcounter{framenumber}{49}
\setcounter{figure}{0}
\setcounter{table}{0}
\setcounter{parentequation}{0}
\setcounter{theorem}{0}
\setcounter{FancyVerbLine}{11}
\setcounter{section@level}{0}
\setcounter{treelevel}{0}
\setcounter{framenumbervorappendix}{39}
}
