\usetikzlibrary{trees}

\newcommand\folder{\includegraphics[height=0.6em]{/home/sjoerd/wt-talk/img/folder.pdf}}
\newcommand\file{\includegraphics[height=0.6em]{/home/sjoerd/wt-talk/img/file.pdf}}
\tikzstyle{every node}=[anchor=west]
\begin{tikzpicture}[grow via three points={one child at (0.1,-0.7) and
  two children at (0.1,-0.7) and (0.1,-1.4)},
  edge from parent path={(\tikzparentnode.south) |- (\tikzchildnode.west)}]
\node {\folder{} root}
  child { node {\folder{} application} }
  child { node {\folder{} system} 
	child {node {subsystem}}
    child {node {subsystem 2}}
 }
  child[missing] {}
  child[missing] {}
  child { node {\folder{} user\_guide} }
  child { node  {\file{} index.php} }
;
\end{tikzpicture}