\relax 
\providecommand\hyper@newdestlabel[2]{}
\@writefile{toc}{\beamer@sectionintoc {15}{Logs}{140}{1}{15}}
\@writefile{nav}{\headcommand {\sectionentry {15}{Logs}{140}{Logs}{1}}}
\@writefile{nav}{\headcommand {\beamer@sectionpages {121}{139}}}
\@writefile{nav}{\headcommand {\beamer@subsectionpages {121}{139}}}
\@writefile{nav}{\headcommand {\slideentry {15}{0}{56}{140/140}{}{1}}}
\@writefile{nav}{\headcommand {\beamer@framepages {140}{140}}}
\@writefile{nav}{\headcommand {\slideentry {15}{0}{57}{141/143}{}{1}}}
\@writefile{nav}{\headcommand {\beamer@framepages {141}{143}}}
\@setckpt{logs}{
\setcounter{page}{144}
\setcounter{equation}{0}
\setcounter{enumi}{0}
\setcounter{enumii}{0}
\setcounter{enumiii}{0}
\setcounter{enumiv}{0}
\setcounter{footnote}{0}
\setcounter{mpfootnote}{0}
\setcounter{beamerpauses}{3}
\setcounter{bookmark@seq@number}{16}
\setcounter{lecture}{0}
\setcounter{part}{1}
\setcounter{section}{15}
\setcounter{subsection}{0}
\setcounter{subsubsection}{0}
\setcounter{subsectionslide}{57}
\setcounter{framenumber}{57}
\setcounter{figure}{0}
\setcounter{table}{0}
\setcounter{parentequation}{0}
\setcounter{theorem}{0}
\setcounter{FancyVerbLine}{1}
\setcounter{section@level}{0}
\setcounter{treelevel}{0}
\setcounter{framenumbervorappendix}{39}
}
