\relax 
\providecommand\hyper@newdestlabel[2]{}
\@writefile{toc}{\beamer@sectionintoc {6}{Models}{59}{0}{6}}
\@writefile{nav}{\headcommand {\sectionentry {6}{Models}{59}{Models}{0}}}
\@writefile{nav}{\headcommand {\beamer@sectionpages {50}{58}}}
\@writefile{nav}{\headcommand {\beamer@subsectionpages {50}{58}}}
\@writefile{nav}{\headcommand {\slideentry {6}{0}{21}{59/59}{}{0}}}
\@writefile{nav}{\headcommand {\beamer@framepages {59}{59}}}
\@writefile{nav}{\headcommand {\slideentry {6}{0}{22}{60/60}{}{0}}}
\@writefile{nav}{\headcommand {\beamer@framepages {60}{60}}}
\@writefile{nav}{\headcommand {\slideentry {6}{0}{23}{61/61}{}{0}}}
\@writefile{nav}{\headcommand {\beamer@framepages {61}{61}}}
\@writefile{nav}{\headcommand {\slideentry {6}{0}{24}{62/63}{}{0}}}
\@writefile{nav}{\headcommand {\beamer@framepages {62}{63}}}
\@writefile{nav}{\headcommand {\slideentry {6}{0}{25}{64/64}{}{0}}}
\@writefile{nav}{\headcommand {\beamer@framepages {64}{64}}}
\@writefile{nav}{\headcommand {\slideentry {6}{0}{26}{65/66}{}{0}}}
\@writefile{nav}{\headcommand {\beamer@framepages {65}{66}}}
\@writefile{nav}{\headcommand {\slideentry {6}{0}{27}{67/68}{}{0}}}
\@writefile{nav}{\headcommand {\beamer@framepages {67}{68}}}
\@writefile{nav}{\headcommand {\slideentry {6}{0}{28}{69/69}{}{0}}}
\@writefile{nav}{\headcommand {\beamer@framepages {69}{69}}}
\@writefile{nav}{\headcommand {\slideentry {6}{0}{29}{70/73}{}{0}}}
\@writefile{nav}{\headcommand {\beamer@framepages {70}{73}}}
\@writefile{nav}{\headcommand {\slideentry {6}{0}{30}{74/78}{}{0}}}
\@writefile{nav}{\headcommand {\beamer@framepages {74}{78}}}
\@writefile{nav}{\headcommand {\slideentry {6}{0}{31}{79/80}{}{0}}}
\@writefile{nav}{\headcommand {\beamer@framepages {79}{80}}}
\@setckpt{models}{
\setcounter{page}{81}
\setcounter{equation}{0}
\setcounter{enumi}{0}
\setcounter{enumii}{0}
\setcounter{enumiii}{0}
\setcounter{enumiv}{0}
\setcounter{footnote}{0}
\setcounter{mpfootnote}{0}
\setcounter{beamerpauses}{1}
\setcounter{bookmark@seq@number}{6}
\setcounter{lecture}{0}
\setcounter{part}{0}
\setcounter{section}{6}
\setcounter{subsection}{0}
\setcounter{subsubsection}{0}
\setcounter{subsectionslide}{31}
\setcounter{framenumber}{31}
\setcounter{figure}{0}
\setcounter{table}{0}
\setcounter{parentequation}{0}
\setcounter{theorem}{0}
\setcounter{FancyVerbLine}{5}
\setcounter{section@level}{0}
\setcounter{treelevel}{0}
}
