\relax 
\providecommand\hyper@newdestlabel[2]{}
\@writefile{toc}{\beamer@sectionintoc {16}{Profiling}{144}{1}{16}}
\@writefile{nav}{\headcommand {\sectionentry {16}{Profiling}{144}{Profiling}{1}}}
\@writefile{nav}{\headcommand {\beamer@sectionpages {140}{143}}}
\@writefile{nav}{\headcommand {\beamer@subsectionpages {140}{143}}}
\@writefile{nav}{\headcommand {\slideentry {16}{0}{58}{144/144}{}{1}}}
\@writefile{nav}{\headcommand {\beamer@framepages {144}{144}}}
\@writefile{nav}{\headcommand {\slideentry {16}{0}{59}{145/147}{}{1}}}
\@writefile{nav}{\headcommand {\beamer@framepages {145}{147}}}
\@setckpt{profiling}{
\setcounter{page}{148}
\setcounter{equation}{0}
\setcounter{enumi}{0}
\setcounter{enumii}{0}
\setcounter{enumiii}{0}
\setcounter{enumiv}{0}
\setcounter{footnote}{0}
\setcounter{mpfootnote}{0}
\setcounter{beamerpauses}{3}
\setcounter{bookmark@seq@number}{17}
\setcounter{lecture}{0}
\setcounter{part}{1}
\setcounter{section}{16}
\setcounter{subsection}{0}
\setcounter{subsubsection}{0}
\setcounter{subsectionslide}{59}
\setcounter{framenumber}{59}
\setcounter{figure}{0}
\setcounter{table}{0}
\setcounter{parentequation}{0}
\setcounter{theorem}{0}
\setcounter{FancyVerbLine}{4}
\setcounter{section@level}{0}
\setcounter{treelevel}{0}
\setcounter{framenumbervorappendix}{39}
}
