\relax 
\providecommand\hyper@newdestlabel[2]{}
\@writefile{toc}{\beamer@sectionintoc {3}{Routering}{25}{0}{3}}
\@writefile{nav}{\headcommand {\sectionentry {3}{Routering}{25}{Routering}{0}}}
\@writefile{nav}{\headcommand {\beamer@sectionpages {12}{24}}}
\@writefile{nav}{\headcommand {\beamer@subsectionpages {12}{24}}}
\@writefile{nav}{\headcommand {\slideentry {3}{0}{7}{25/25}{}{0}}}
\@writefile{nav}{\headcommand {\beamer@framepages {25}{25}}}
\@writefile{nav}{\headcommand {\slideentry {3}{0}{8}{26/29}{}{0}}}
\@writefile{nav}{\headcommand {\beamer@framepages {26}{29}}}
\@writefile{nav}{\headcommand {\slideentry {3}{0}{9}{30/35}{}{0}}}
\@writefile{nav}{\headcommand {\beamer@framepages {30}{35}}}
\@writefile{nav}{\headcommand {\slideentry {3}{0}{10}{36/39}{}{0}}}
\@writefile{nav}{\headcommand {\beamer@framepages {36}{39}}}
\@setckpt{routing}{
\setcounter{page}{40}
\setcounter{equation}{0}
\setcounter{enumi}{0}
\setcounter{enumii}{0}
\setcounter{enumiii}{0}
\setcounter{enumiv}{0}
\setcounter{footnote}{0}
\setcounter{mpfootnote}{0}
\setcounter{beamerpauses}{4}
\setcounter{bookmark@seq@number}{3}
\setcounter{lecture}{0}
\setcounter{part}{0}
\setcounter{section}{3}
\setcounter{subsection}{0}
\setcounter{subsubsection}{0}
\setcounter{subsectionslide}{10}
\setcounter{framenumber}{10}
\setcounter{figure}{0}
\setcounter{table}{0}
\setcounter{parentequation}{0}
\setcounter{theorem}{0}
\setcounter{FancyVerbLine}{3}
\setcounter{section@level}{0}
\setcounter{treelevel}{0}
}
