# Fdb version 3
["latex"] 1362738854 "schrijfrechten.tex" "schrijfrechten.dvi" "schrijfrechten" 1362738854
  "/usr/share/texmf/web2c/texmf.cnf" 1342591516 29610 220a4f4cc0d915bf8fcbcb553dcee1ae ""
  "/var/lib/texmf/web2c/pdftex/latex.fmt" 1358172971 6913431 b251c6d439fb1c3eaf20301ed7593d81 ""
  "schrijfrechten.aux" 1362738782 1400 6a50c7a947e2fd7c90e25e8be53ffeca ""
  "schrijfrechten.tex" 1362738222 1784 d966765e1f0c9ecbdd9418d8a7f1973b ""
  (generated)
  "schrijfrechten.log"
  "schrijfrechten.dvi"
