\relax 
\providecommand\hyper@newdestlabel[2]{}
\@writefile{toc}{\beamer@sectionintoc {14}{Schrijfrechten}{121}{1}{14}}
\@writefile{nav}{\headcommand {\sectionentry {14}{Schrijfrechten}{121}{Schrijfrechten}{1}}}
\@writefile{nav}{\headcommand {\beamer@sectionpages {114}{120}}}
\@writefile{nav}{\headcommand {\beamer@subsectionpages {114}{120}}}
\@writefile{nav}{\headcommand {\slideentry {14}{0}{54}{121/121}{}{1}}}
\@writefile{nav}{\headcommand {\beamer@framepages {121}{121}}}
\newlabel{bkp:perms}{{55}{122}{Schrijfrechten}{Doc-Start}{}}
\@writefile{snm}{\beamer@slide {bkp:perms}{122}}
\@writefile{nav}{\headcommand {\slideentry {14}{0}{55}{122/139}{}{1}}}
\@writefile{nav}{\headcommand {\beamer@framepages {122}{139}}}
\@setckpt{schrijfrechten}{
\setcounter{page}{140}
\setcounter{equation}{0}
\setcounter{enumi}{0}
\setcounter{enumii}{0}
\setcounter{enumiii}{0}
\setcounter{enumiv}{0}
\setcounter{footnote}{0}
\setcounter{mpfootnote}{0}
\setcounter{beamerpauses}{18}
\setcounter{bookmark@seq@number}{15}
\setcounter{lecture}{0}
\setcounter{part}{1}
\setcounter{section}{14}
\setcounter{subsection}{0}
\setcounter{subsubsection}{0}
\setcounter{subsectionslide}{55}
\setcounter{framenumber}{55}
\setcounter{figure}{0}
\setcounter{table}{0}
\setcounter{parentequation}{0}
\setcounter{theorem}{0}
\setcounter{FancyVerbLine}{2}
\setcounter{section@level}{0}
\setcounter{treelevel}{0}
\setcounter{framenumbervorappendix}{39}
}
