\relax 
\providecommand\hyper@newdestlabel[2]{}
\providecommand\HyperFirstAtBeginDocument{\AtBeginDocument}
\HyperFirstAtBeginDocument{\ifx\hyper@anchor\@undefined
\global\let\oldcontentsline\contentsline
\gdef\contentsline#1#2#3#4{\oldcontentsline{#1}{#2}{#3}}
\global\let\oldnewlabel\newlabel
\gdef\newlabel#1#2{\newlabelxx{#1}#2}
\gdef\newlabelxx#1#2#3#4#5#6{\oldnewlabel{#1}{{#2}{#3}}}
\AtEndDocument{\ifx\hyper@anchor\@undefined
\let\contentsline\oldcontentsline
\let\newlabel\oldnewlabel
\fi}
\fi}
\global\let\hyper@last\relax 
\gdef\HyperFirstAtBeginDocument#1{#1}
\providecommand\HyField@AuxAddToFields[1]{}
\providecommand\HyField@AuxAddToCoFields[2]{}
\catcode `"\active 
\@input{titlepage.aux}
\@writefile{toc}{\beamer@endinputifotherversion {3.33pt}}
\@writefile{nav}{\beamer@endinputifotherversion {3.33pt}}
\select@language{dutch}
\@writefile{toc}{\select@language{dutch}}
\@writefile{lof}{\select@language{dutch}}
\@writefile{lot}{\select@language{dutch}}
\pgfsyspdfmark {pgfid1}{1864679}{9877938}
\@input{recap.aux}
\@input{intro.aux}
\@input{files.aux}
\@input{routing.aux}
\@input{controllers.aux}
\@input{views.aux}
\@input{models.aux}
\@input{libs.aux}
\@input{summary.aux}
\@input{pagination.aux}
\@writefile{nav}{\headcommand {\partentry {B"ylage}{1}}}
\@writefile{nav}{\headcommand {\beamer@partpages {1}{94}}}
\@writefile{nav}{\headcommand {\beamer@sectionpages {93}{94}}}
\@writefile{nav}{\headcommand {\beamer@subsectionpages {93}{94}}}
\@writefile{nav}{\headcommand {\beamer@appendixpages {95}}}
\@input{extras.aux}
\@input{nesting.aux}
\@input{schrijfrechten.aux}
\@input{logs.aux}
\@input{profiling.aux}
\@writefile{nav}{\headcommand {\beamer@partpages {1}{147}}}
\@writefile{nav}{\headcommand {\beamer@subsectionpages {93}{147}}}
\@writefile{nav}{\headcommand {\beamer@sectionpages {93}{147}}}
\@writefile{nav}{\headcommand {\beamer@documentpages {147}}}
\@writefile{nav}{\headcommand {\def \inserttotalframenumber {39}}}
